{
	"_id": "user123",
	"firstName": "John",
	"lastName": "Doe",
	"email": "johndoe@email.com",
	"password": "user123",
	"isAdmin": false,
	"mobileNumber": "09151845123",
	"dateTimeRegistered": "2022-08-15-1811PM"
},

{
	"_id": "user456",
	"firstName": "Jane",
	"lastName": "Doe",
	"email": "janedoe@email.com",
	"password": "user456",
	"isAdmin": false,
	"mobileNumber": "09151845145",
	"dateTimeRegistered": "2022-08-15-1815PM"
}



