{
	"name": "Epson L121",
	"description": "Single Function Ink Tank Printer",
	"price": 5495,
	"stocks": 5,
	"isActive": true,
	"SKU": "C11CJ68505"
},
{
	"name": "Epson L1210",
	"description": "A4 Ink Tank Printer",
	"price":7945,
	"stocks": 3,
	"isActive": true,
	"SKU": "A11DJ68505"
}
